{
  "properties": [
    {
      "name": "app.task-executor.core-size",
      "type": "java.lang.String",
      "description": "Description for app.task-executor.core-size."
    },
    {
      "name": "app.task-executor.max-size",
      "type": "java.lang.String",
      "description": "Description for app.task-executor.max-size."
    },
    {
      "name": "app.task-executor.queue-capacity",
      "type": "java.lang.String",
      "description": "Description for app.task-executor.queue-capacity."
    },
    {
      "name": "app.task-executor.name-prefix",
      "type": "java.lang.String",
      "description": "Description for app.task-executor.name-prefix."
    }
  ] }